{
"software_result": {
    "type": "software_result",
    "key": "string*",
    "software_name": "string*",
    "software_version": "string*",
    "software_branch": "string",
    "software_commit": "string",
    "software_log": "string",
    "run_id": "string",
    "run_date": "date",
    "databases": "dict database:class",
    "seq_regions": "dict seq_region:class",
    "seq_variations": "dict seq_variation:class",
    "phenotypes": "dict phenotype:class",
    "provided_species": "string",
    "software_executions": "dict software_exec:class",
    "aln_hits": "dict aln_hit:class",
    "result_summary": "string"
  },
"database": {
    "type": "database",
    "key": "string*",
    "database_name": "string*",
    "database_version": "string",
    "database_branch": "string",
    "database_commit": "string",
    "checksum_sha256": "char64"
  },
"seq_region": {
    "type": "seq_region",
    "key": "string*",
    "gene": "bool_or_unknown",
    "name": "string*",
    "identity": "percentage",
    "alignment_length": "integer",
    "ref_gene_lenght": "integer",
    "coverage": "percentage",
    "depth": "float",
    "ref_id": "string*",
    "ref_acc": "string",
    "ref_start_pos": "integer",
    "ref_end_pos": "integer",
    "query_id": "string",
    "query_start_pos": "integer",
    "query_end_pos": "integer",
    "phenotypes": "array phenotype.key",
    "ref_database": "array database.key"
  },
"seq_variation": {
    "type": "seq_variation",
    "key": "string*",
    "ref_id": "string*",
    "seq_var": "seq_var_string",
    "codon_change": "codon_change_string",
    "ref_codon": "nucleotides",
    "var_codon": "nucleotides",
    "ref_aa": "aminoacid_1_char",
    "var_aa": "aminoacid_1_char",
    "ref_start_pos": "integer",
    "ref_end_pos": "integer",
    "substitution": "bool",
    "insertion": "bool",
    "deletion": "bool",
    "ref_database": "array database.key",
    "seq_regions": "array seq_region.key",
    "phenotypes": "array phenotype.key"
  },
"phenotype": {
    "type": "phenotype",
    "key": "string*",
    "category": "vocabulary*",
    "amr_classes": "array vocabulary",
    "amr_resistance": "vocabulary",
    "amr_resistant": "bool_or_unknown",
    "amr_species_relevant": "bool",
    "seq_regions": "array seq_region.key",
    "seq_variations": "array seq_variation.key",
    "ref_database": "array database.key"
  },
"aln_hit": {
    "type": "aln_hit",
    "key": "string*",
    "queryID": "string",
    "templateID": "string",
    "query_identity": "float",
    "template_identity": "float",
    "template_length": "integer",
    "template_start_aln": "integer",
    "template_end_aln": "integer",
    "query_start_aln": "integer",
    "query_end_aln": "integer",
    "query_aln": "string",
    "template_aln": "string",
    "aln_scheme": "string",
    "evalue": "float",
    "aln_length": "integer",
    "query_coverage": "float",
    "template_coverage": "float",
    "bitscore": "integer",
    "raw_score": "float",
    "n_identities": "int",
    "mismatch": "integer",
    "n_pos_matches": "integer",
    "pos_matches": "integer",
    "gapopen": "integer",
    "gaps": "integer",
    "frame": "tuple",
    "query_frame": "integer",
    "template_frame": "integer",
    "btop": "float",
    "template_taxids": "string",
    "template_scie_name": "string",
    "template_common_name": "string",
    "template_blast_name": "string",
    "template_superkingdom": "string",
    "template_title": "string",
    "all_template_title": "string",
    "template_strand": "string",
    "query_coverage_hsp": "float",
    "db_number": "string",
    "db_length": "integer",
    "hsp_length": "integer",
    "effective_space": "float",
    "kappa": "float",
    "lambda": "float",
    "entropy": "float",
    "query_coverage_once": "float",
    "conclave_score": "float",
    "depth": "float",
    "q_value": "float",
    "p_value": "float",
    "reads_mapped": "integer",
    "fragments_mapped": "integer",
    "mapScoreSum": "float",
    "template_coveredPos": "string",
    "tot_query_coverage": "float",
    "tot_template_coverage": "float",
    "tot_depth": "float",
    "Num": "int",
    "template_consesusSum": "float",
    "bpTotal": "integer",
    "depth_variance": "float",
    "nucHigh_depth_variance": "float",
    "depth_max": "float",
    "snps": "float",
    "insertions": "float",
    "deletions": "float",
    "reads_mapped_align": "integer",
    "fragments_mapped_align": "integer",
    "matrix": "dict matrix_position:class",
    "point_variations": "dict point_variation:class",
    "reads_aligned": "dict fragment_aligned:class",
    "score": "integer",
    "n_alignments": "integer",
    "positives": "integer",
    "strand": "tuple",
    "frame": "tuple",
    "template_file": "array",
    "file_paths": "array",
    "aln_files": "array",
    "exec_key": "software_exec.key"
  },
"matrix_position":{
    "type": "matrix_position",
    "key": "string*",
    "position": "integer",
    "ref_nucl": "string",
    "A_nucl": "integer",
    "G_nucl": "integer",
    "T_nucl": "integer",
    "C_nucl": "integer",
    "N_nucl": "integer",
    "null_nucl": "integer"
},
"point_variation":{
    "type": "point_variation",
    "key": "string*",
    "position": "integer",
    "id": "string",
    "ref_base": "string",
    "alt_base": "string",
    "quality": "float",
    "filter": "string",
    "info": "string",
    "format": "string"
},
"fragment_aligned":{
    "type": "fragment_mapped",
    "key": "string*",
    "query_seq": "string",
    "eq_mapped": "integer",
    "aln_score": "float",
    "start_aln": "integer",
    "end_aln": "integer",
    "template_name": "hit.templateID",
    "query_name": "string",
    "cut_start": "integer",
    "cut_end": "integer"
},
"software_exec": {
    "type": "software_exec",
    "key": "string*",
    "software_name": "string",
    "command": "string",
    "parameters": "dictionary",
    "stdout": "string",
    "stderr": "string"
}
}
